{
    "annotations": {
        "list": [
            {
                "builtIn": 1,
                "datasource": "-- Grafana --",
                "enable": true,
                "hide": true,
                "iconColor": "rgba(0, 211, 255, 1)",
                "name": "Annotations & Alerts",
                "type": "dashboard"
            }
        ]
    },
    "editable": true,
    "gnetId": null,
    "graphTooltip": 0,
    "id": 8,
    "links": [],
    "panels": [
        {
            "datasource": null,
            "fieldConfig": {
                "defaults": {
                    "color": {
                        "mode": "thresholds"
                    },
                    "decimals": 0,
                    "mappings": [],
                    "thresholds": {
                        "mode": "absolute",
                        "steps": [
                            {
                                "color": "green",
                                "value": null
                            }
                        ]
                    },
                    "unit": "none"
                },
                "overrides": []
            },
            "gridPos": {
                "h": 8,
                "w": 24,
                "x": 0,
                "y": 0
            },
            "id": 8,
            "interval": "1h",
            "options": {
                "colorMode": "value",
                "graphMode": "none",
                "justifyMode": "auto",
                "orientation": "auto",
                "reduceOptions": {
                    "calcs": [
                        "lastNotNull"
                    ],
                    "fields": "",
                    "values": false
                },
                "text": {},
                "textMode": "auto"
            },
            "pluginVersion": "7.5.6",
            "targets": [
                {
                    "exemplar": true,
                    "expr": "sum(increase(dmarc_total[$__range]))",
                    "interval": "",
                    "legendFormat": "",
                    "refId": "A"
                }
            ],
            "title": "Total",
            "type": "stat"
        },
        {
            "datasource": null,
            "fieldConfig": {
                "defaults": {
                    "color": {
                        "mode": "thresholds"
                    },
                    "decimals": 0,
                    "mappings": [],
                    "thresholds": {
                        "mode": "percentage",
                        "steps": [
                            {
                                "color": "green",
                                "value": null
                            }
                        ]
                    },
                    "unit": "none"
                },
                "overrides": []
            },
            "gridPos": {
                "h": 8,
                "w": 8,
                "x": 0,
                "y": 8
            },
            "id": 11,
            "interval": "1h",
            "options": {
                "colorMode": "value",
                "graphMode": "none",
                "justifyMode": "auto",
                "orientation": "auto",
                "reduceOptions": {
                    "calcs": [
                        "mean"
                    ],
                    "fields": "",
                    "values": false
                },
                "text": {},
                "textMode": "value"
            },
            "pluginVersion": "7.5.6",
            "targets": [
                {
                    "exemplar": true,
                    "expr": "sum(increase(dmarc_compliant_total[$__range]))",
                    "interval": "",
                    "legendFormat": "",
                    "refId": "A"
                }
            ],
            "title": "# compliant",
            "type": "stat"
        },
        {
            "datasource": null,
            "fieldConfig": {
                "defaults": {
                    "color": {
                        "mode": "thresholds"
                    },
                    "decimals": 0,
                    "mappings": [],
                    "thresholds": {
                        "mode": "absolute",
                        "steps": [
                            {
                                "color": "green",
                                "value": null
                            },
                            {
                                "color": "red",
                                "value": 0.0001
                            }
                        ]
                    },
                    "unit": "none"
                },
                "overrides": []
            },
            "gridPos": {
                "h": 8,
                "w": 8,
                "x": 8,
                "y": 8
            },
            "id": 13,
            "interval": "1h",
            "options": {
                "colorMode": "value",
                "graphMode": "none",
                "justifyMode": "auto",
                "orientation": "auto",
                "reduceOptions": {
                    "calcs": [
                        "lastNotNull"
                    ],
                    "fields": "",
                    "values": false
                },
                "text": {},
                "textMode": "auto"
            },
            "pluginVersion": "7.5.6",
            "targets": [
                {
                    "exemplar": true,
                    "expr": "sum(increase(dmarc_reject_total[$__range]))",
                    "interval": "",
                    "legendFormat": "",
                    "refId": "A"
                }
            ],
            "timeFrom": null,
            "title": "# reject",
            "type": "stat"
        },
        {
            "datasource": null,
            "fieldConfig": {
                "defaults": {
                    "color": {
                        "mode": "thresholds"
                    },
                    "decimals": 0,
                    "mappings": [],
                    "thresholds": {
                        "mode": "absolute",
                        "steps": [
                            {
                                "color": "green",
                                "value": null
                            },
                            {
                                "color": "red",
                                "value": 0.0001
                            }
                        ]
                    },
                    "unit": "none"
                },
                "overrides": []
            },
            "gridPos": {
                "h": 8,
                "w": 8,
                "x": 16,
                "y": 8
            },
            "id": 10,
            "interval": "1h",
            "options": {
                "colorMode": "value",
                "graphMode": "none",
                "justifyMode": "auto",
                "orientation": "auto",
                "reduceOptions": {
                    "calcs": [
                        "lastNotNull"
                    ],
                    "fields": "",
                    "values": false
                },
                "text": {},
                "textMode": "auto"
            },
            "pluginVersion": "7.5.6",
            "targets": [
                {
                    "exemplar": true,
                    "expr": "sum(increase(dmarc_quarantine_total[$__range]))",
                    "interval": "",
                    "legendFormat": "",
                    "refId": "A"
                }
            ],
            "timeFrom": null,
            "title": "# quarantine",
            "type": "stat"
        },
        {
            "datasource": null,
            "fieldConfig": {
                "defaults": {
                    "color": {
                        "mode": "thresholds"
                    },
                    "mappings": [],
                    "thresholds": {
                        "mode": "percentage",
                        "steps": [
                            {
                                "color": "red",
                                "value": null
                            },
                            {
                                "color": "green",
                                "value": 100
                            }
                        ]
                    },
                    "unit": "percentunit"
                },
                "overrides": []
            },
            "gridPos": {
                "h": 8,
                "w": 8,
                "x": 0,
                "y": 16
            },
            "id": 6,
            "interval": "1h",
            "options": {
                "colorMode": "value",
                "graphMode": "none",
                "justifyMode": "auto",
                "orientation": "auto",
                "reduceOptions": {
                    "calcs": [
                        "mean"
                    ],
                    "fields": "",
                    "values": false
                },
                "text": {},
                "textMode": "value"
            },
            "pluginVersion": "7.5.6",
            "targets": [
                {
                    "exemplar": true,
                    "expr": "sum(increase(dmarc_compliant_total[$__range]))/sum(increase(dmarc_total[$__range]))",
                    "interval": "",
                    "legendFormat": "",
                    "refId": "A"
                }
            ],
            "title": "% compliant",
            "type": "stat"
        },
        {
            "datasource": null,
            "fieldConfig": {
                "defaults": {
                    "color": {
                        "mode": "thresholds"
                    },
                    "mappings": [],
                    "thresholds": {
                        "mode": "absolute",
                        "steps": [
                            {
                                "color": "green",
                                "value": null
                            },
                            {
                                "color": "red",
                                "value": 0.0001
                            }
                        ]
                    },
                    "unit": "percentunit"
                },
                "overrides": []
            },
            "gridPos": {
                "h": 8,
                "w": 8,
                "x": 8,
                "y": 16
            },
            "id": 12,
            "interval": "1h",
            "options": {
                "colorMode": "value",
                "graphMode": "none",
                "justifyMode": "auto",
                "orientation": "auto",
                "reduceOptions": {
                    "calcs": [
                        "lastNotNull"
                    ],
                    "fields": "",
                    "values": false
                },
                "text": {},
                "textMode": "auto"
            },
            "pluginVersion": "7.5.6",
            "targets": [
                {
                    "exemplar": true,
                    "expr": "sum(increase(dmarc_reject_total[$__range]))/sum(increase(dmarc_total[$__range]))",
                    "interval": "",
                    "legendFormat": "",
                    "refId": "A"
                }
            ],
            "timeFrom": null,
            "title": "% reject",
            "type": "stat"
        },
        {
            "datasource": null,
            "fieldConfig": {
                "defaults": {
                    "color": {
                        "mode": "thresholds"
                    },
                    "mappings": [],
                    "thresholds": {
                        "mode": "absolute",
                        "steps": [
                            {
                                "color": "green",
                                "value": null
                            },
                            {
                                "color": "red",
                                "value": 0.0001
                            }
                        ]
                    },
                    "unit": "percentunit"
                },
                "overrides": []
            },
            "gridPos": {
                "h": 8,
                "w": 8,
                "x": 16,
                "y": 16
            },
            "id": 14,
            "interval": "1h",
            "options": {
                "colorMode": "value",
                "graphMode": "none",
                "justifyMode": "auto",
                "orientation": "auto",
                "reduceOptions": {
                    "calcs": [
                        "lastNotNull"
                    ],
                    "fields": "",
                    "values": false
                },
                "text": {},
                "textMode": "auto"
            },
            "pluginVersion": "7.5.6",
            "targets": [
                {
                    "exemplar": true,
                    "expr": "sum(increase(dmarc_quarantine_total[$__range]))/sum(increase(dmarc_total[$__range]))",
                    "interval": "",
                    "legendFormat": "",
                    "refId": "A"
                }
            ],
            "timeFrom": null,
            "title": "% quarantine",
            "type": "stat"
        },
        {
            "aliasColors": {},
            "bars": false,
            "dashLength": 10,
            "dashes": false,
            "datasource": null,
            "description": "",
            "fieldConfig": {
                "defaults": {},
                "overrides": []
            },
            "fill": 1,
            "fillGradient": 0,
            "gridPos": {
                "h": 9,
                "w": 24,
                "x": 0,
                "y": 24
            },
            "hiddenSeries": false,
            "id": 2,
            "interval": "1h",
            "legend": {
                "avg": false,
                "current": false,
                "max": false,
                "min": false,
                "show": true,
                "total": false,
                "values": false
            },
            "lines": true,
            "linewidth": 1,
            "nullPointMode": "null",
            "options": {
                "alertThreshold": true
            },
            "percentage": false,
            "pluginVersion": "7.5.6",
            "pointradius": 2,
            "points": false,
            "renderer": "flot",
            "seriesOverrides": [],
            "spaceLength": 10,
            "stack": false,
            "steppedLine": false,
            "targets": [
                {
                    "exemplar": true,
                    "expr": "sum(increase(dmarc_compliant_total[$__rate_interval])) by (reporter)",
                    "interval": "",
                    "legendFormat": "Compliant by {{reporter}}",
                    "refId": "A"
                },
                {
                    "exemplar": true,
                    "expr": "sum(increase(dmarc_reject_total[$__rate_interval])) by (reporter)",
                    "hide": false,
                    "interval": "",
                    "legendFormat": "Reject by {{reporter}}",
                    "refId": "B"
                }
            ],
            "thresholds": [],
            "timeFrom": null,
            "timeRegions": [],
            "timeShift": null,
            "title": "# by reporter",
            "tooltip": {
                "shared": true,
                "sort": 0,
                "value_type": "individual"
            },
            "type": "graph",
            "xaxis": {
                "buckets": null,
                "mode": "time",
                "name": null,
                "show": true,
                "values": []
            },
            "yaxes": [
                {
                    "format": "short",
                    "label": null,
                    "logBase": 1,
                    "max": null,
                    "min": null,
                    "show": true
                },
                {
                    "format": "short",
                    "label": null,
                    "logBase": 1,
                    "max": null,
                    "min": null,
                    "show": true
                }
            ],
            "yaxis": {
                "align": false,
                "alignLevel": null
            }
        },
        {
            "aliasColors": {},
            "bars": false,
            "dashLength": 10,
            "dashes": false,
            "datasource": null,
            "fieldConfig": {
                "defaults": {},
                "overrides": []
            },
            "fill": 1,
            "fillGradient": 0,
            "gridPos": {
                "h": 9,
                "w": 24,
                "x": 0,
                "y": 33
            },
            "hiddenSeries": false,
            "id": 4,
            "interval": "1h",
            "legend": {
                "avg": false,
                "current": false,
                "max": false,
                "min": false,
                "show": true,
                "total": false,
                "values": false
            },
            "lines": true,
            "linewidth": 1,
            "nullPointMode": "null",
            "options": {
                "alertThreshold": true
            },
            "percentage": false,
            "pluginVersion": "7.5.6",
            "pointradius": 2,
            "points": false,
            "renderer": "flot",
            "seriesOverrides": [],
            "spaceLength": 10,
            "stack": false,
            "steppedLine": false,
            "targets": [
                {
                    "exemplar": true,
                    "expr": "sum(increase(dmarc_compliant_total[$__rate_interval])) by (dkim_domain)",
                    "interval": "",
                    "legendFormat": "Compliant from {{dkim_domain}}",
                    "refId": "A"
                },
                {
                    "exemplar": true,
                    "expr": "sum(increase(dmarc_reject_total[$__rate_interval])) by (dkim_domain)",
                    "hide": false,
                    "interval": "",
                    "legendFormat": "Rejected from {{dkim_domain}}",
                    "refId": "B"
                }
            ],
            "thresholds": [],
            "timeFrom": null,
            "timeRegions": [],
            "timeShift": null,
            "title": "# by sender domain",
            "tooltip": {
                "shared": true,
                "sort": 0,
                "value_type": "individual"
            },
            "type": "graph",
            "xaxis": {
                "buckets": null,
                "mode": "time",
                "name": null,
                "show": true,
                "values": []
            },
            "yaxes": [
                {
                    "format": "short",
                    "label": null,
                    "logBase": 1,
                    "max": null,
                    "min": null,
                    "show": true
                },
                {
                    "format": "short",
                    "label": null,
                    "logBase": 1,
                    "max": null,
                    "min": null,
                    "show": true
                }
            ],
            "yaxis": {
                "align": false,
                "alignLevel": null
            }
        }
    ],
    "schemaVersion": 27,
    "style": "dark",
    "tags": [],
    "templating": {
        "list": []
    },
    "time": {
        "from": "now-30d",
        "to": "now"
    },
    "timepicker": {},
    "timezone": "",
    "title": "dmarc dashboard",
    "uid": "dWAaq-cnk",
    "version": 11
}